{
	"info": {
		"_postman_id": "aff87f62-920d-4d9f-a565-a78567ad26c5",
		"name": "LAKES_API",
		"schema": "https://schema.getpostman.com/json/collection/v2.1.0/collection.json"
	},
	"item": [
		{
			"name": "OAuth2",
			"item": [
				{
					"name": "Register",
					"request": {
						"method": "POST",
						"header": [
							{
								"key": "Content-Type",
								"name": "Content-Type",
								"value": "application/json",
								"type": "text"
							}
						],
						"body": {
							"mode": "raw",
							"raw": "{\n\t\"first_name\": \"test\",\n\t\"last_name\": \"test\",\n\t\"parent_name\": \"test\",\n\t\"document_number\": \"test\",\n\t\"password\": \"123\",\n\t\"password_confirmation\": \"123\"\n}",
							"options": {
								"raw": {
									"language": "json"
								}
							}
						},
						"url": {
							"raw": "{{url}}/api/register",
							"host": [
								"{{url}}"
							],
							"path": [
								"api",
								"register"
							]
						}
					},
					"response": []
				},
				{
					"name": "Login",
					"request": {
						"method": "POST",
						"header": [
							{
								"key": "Content-Type",
								"name": "Content-Type",
								"value": "application/json",
								"type": "text"
							}
						],
						"body": {
							"mode": "raw",
							"raw": "{\n\t\"grant_type\": \"password\",\n\t\"client_secret\": \"yLjZHV7hywUDgtecYFwO6ygSMx3S1BOpegIrLepY\",\n\t\"client_id\": 2,\n\t\"username\": \"admin\",\n\t\"password\": \"admin\"\n}",
							"options": {
								"raw": {
									"language": "json"
								}
							}
						},
						"url": {
							"raw": "{{url}}/api/login",
							"host": [
								"{{url}}"
							],
							"path": [
								"api",
								"login"
							]
						}
					},
					"response": []
				},
				{
					"name": "User info",
					"request": {
						"auth": {
							"type": "bearer",
							"bearer": [
								{
									"key": "token",
									"value": "{{token}}",
									"type": "string"
								}
							]
						},
						"method": "GET",
						"header": [
							{
								"key": "Content-Type",
								"name": "Content-Type",
								"value": "application/json",
								"type": "text"
							}
						],
						"url": {
							"raw": "{{url}}/api/user",
							"host": [
								"{{url}}"
							],
							"path": [
								"api",
								"user"
							]
						}
					},
					"response": []
				},
				{
					"name": "Search user",
					"request": {
						"auth": {
							"type": "bearer",
							"bearer": [
								{
									"key": "token",
									"value": "{{token}}",
									"type": "string"
								}
							]
						},
						"method": "POST",
						"header": [
							{
								"key": "Content-Type",
								"name": "Content-Type",
								"value": "application/json",
								"type": "text"
							}
						],
						"body": {
							"mode": "raw",
							"raw": "{\n\t\"document_number\": \"user\"\n}",
							"options": {
								"raw": {
									"language": "json"
								}
							}
						},
						"url": {
							"raw": "{{url}}/api/users/search",
							"host": [
								"{{url}}"
							],
							"path": [
								"api",
								"users",
								"search"
							]
						}
					},
					"response": []
				},
				{
					"name": "Logout",
					"request": {
						"auth": {
							"type": "bearer",
							"bearer": [
								{
									"key": "token",
									"value": "{{token}}",
									"type": "string"
								}
							]
						},
						"method": "POST",
						"header": [],
						"url": {
							"raw": "{{url}}/api/logout",
							"host": [
								"{{url}}"
							],
							"path": [
								"api",
								"logout"
							]
						}
					},
					"response": []
				}
			],
			"protocolProfileBehavior": {}
		},
		{
			"name": "File",
			"item": [
				{
					"name": "Upload",
					"request": {
						"auth": {
							"type": "bearer",
							"bearer": [
								{
									"key": "token",
									"value": "{{token}}",
									"type": "string"
								}
							]
						},
						"method": "POST",
						"header": [
							{
								"key": "Content-Type",
								"name": "Content-Type",
								"value": "application/x-www-form-urlencoded",
								"type": "text"
							}
						],
						"body": {
							"mode": "formdata",
							"formdata": [
								{
									"key": "file",
									"type": "file",
									"src": "/home/aman/Downloads/WhatsApp Image 2019-11-22 at 08.28.13.jpeg"
								},
								{
									"key": "category_id",
									"value": "2",
									"description": "#1 DOC FRONT; #2 DOC BACK",
									"type": "text"
								}
							]
						},
						"url": {
							"raw": "{{url}}/api/document/upload",
							"host": [
								"{{url}}"
							],
							"path": [
								"api",
								"document",
								"upload"
							]
						}
					},
					"response": []
				},
				{
					"name": "Delete",
					"request": {
						"auth": {
							"type": "bearer",
							"bearer": [
								{
									"key": "token",
									"value": "{{token}}",
									"type": "string"
								}
							]
						},
						"method": "POST",
						"header": [],
						"url": {
							"raw": "{{url}}/api/document/delete",
							"host": [
								"{{url}}"
							],
							"path": [
								"api",
								"document",
								"delete"
							]
						}
					},
					"response": []
				}
			],
			"protocolProfileBehavior": {}
		},
		{
			"name": "Lakes",
			"item": [
				{
					"name": "All",
					"request": {
						"auth": {
							"type": "bearer",
							"bearer": [
								{
									"key": "token",
									"value": "{{token}}",
									"type": "string"
								}
							]
						},
						"method": "GET",
						"header": [],
						"url": {
							"raw": "{{url}}/api/lakes/all",
							"host": [
								"{{url}}"
							],
							"path": [
								"api",
								"lakes",
								"all"
							]
						}
					},
					"response": []
				},
				{
					"name": "Create",
					"request": {
						"auth": {
							"type": "bearer",
							"bearer": [
								{
									"key": "token",
									"value": "{{token}}",
									"type": "string"
								}
							]
						},
						"method": "POST",
						"header": [
							{
								"key": "Content-Type",
								"name": "Content-Type",
								"value": "application/json",
								"type": "text"
							}
						],
						"body": {
							"mode": "raw",
							"raw": "{\n\t\"name\": \"test\",\n\t\"description\": \"test\"\n}",
							"options": {
								"raw": {
									"language": "json"
								}
							}
						},
						"url": {
							"raw": "{{url}}/api/lakes/create",
							"host": [
								"{{url}}"
							],
							"path": [
								"api",
								"lakes",
								"create"
							]
						}
					},
					"response": []
				},
				{
					"name": "Update",
					"request": {
						"auth": {
							"type": "bearer",
							"bearer": [
								{
									"key": "token",
									"value": "{{token}}",
									"type": "string"
								}
							]
						},
						"method": "POST",
						"header": [
							{
								"key": "Content-Type",
								"name": "Content-Type",
								"value": "application/json",
								"type": "text"
							}
						],
						"body": {
							"mode": "raw",
							"raw": "{\n\t\"id\": 5,\n\t\"name\": \"test2\",\n\t\"description\": \"test2\"\n}",
							"options": {
								"raw": {
									"language": "json"
								}
							}
						},
						"url": {
							"raw": "{{url}}/api/lakes/update",
							"host": [
								"{{url}}"
							],
							"path": [
								"api",
								"lakes",
								"update"
							]
						}
					},
					"response": []
				},
				{
					"name": "Delete",
					"request": {
						"auth": {
							"type": "bearer",
							"bearer": [
								{
									"key": "token",
									"value": "{{token}}",
									"type": "string"
								}
							]
						},
						"method": "POST",
						"header": [],
						"body": {
							"mode": "formdata",
							"formdata": [
								{
									"key": "id",
									"value": "5",
									"type": "text"
								}
							]
						},
						"url": {
							"raw": "{{url}}/api/lakes/delete",
							"host": [
								"{{url}}"
							],
							"path": [
								"api",
								"lakes",
								"delete"
							]
						}
					},
					"response": []
				},
				{
					"name": "Add service",
					"request": {
						"auth": {
							"type": "bearer",
							"bearer": [
								{
									"key": "token",
									"value": "{{token}}",
									"type": "string"
								}
							]
						},
						"method": "POST",
						"header": [
							{
								"key": "Content-Type",
								"name": "Content-Type",
								"value": "application/json",
								"type": "text"
							}
						],
						"body": {
							"mode": "formdata",
							"formdata": [
								{
									"key": "lake_id",
									"value": "1",
									"type": "text"
								},
								{
									"key": "service_id",
									"value": "3",
									"type": "text"
								},
								{
									"key": "price",
									"value": "1000",
									"description": "Optional",
									"type": "text"
								},
								{
									"key": "description",
									"value": "odin 4as 1000 tg vmeste s drovami, uglei net",
									"description": "Optional",
									"type": "text"
								}
							],
							"options": {
								"raw": {
									"language": "json"
								}
							}
						},
						"url": {
							"raw": "{{url}}/api/lakes/add_service",
							"host": [
								"{{url}}"
							],
							"path": [
								"api",
								"lakes",
								"add_service"
							]
						}
					},
					"response": []
				},
				{
					"name": "Update service",
					"request": {
						"auth": {
							"type": "bearer",
							"bearer": [
								{
									"key": "token",
									"value": "{{token}}",
									"type": "string"
								}
							]
						},
						"method": "POST",
						"header": [
							{
								"key": "Content-Type",
								"name": "Content-Type",
								"type": "text",
								"value": "application/json"
							}
						],
						"body": {
							"mode": "formdata",
							"formdata": [
								{
									"key": "lake_service_id",
									"value": "1",
									"type": "text"
								},
								{
									"key": "price",
									"value": "1200",
									"description": "Optional",
									"type": "text"
								},
								{
									"key": "description",
									"value": "odin 4as 1000 tg vmeste s drovami, uglei net",
									"description": "Optional",
									"type": "text"
								}
							],
							"options": {
								"raw": {
									"language": "json"
								}
							}
						},
						"url": {
							"raw": "{{url}}/api/lakes/update_service",
							"host": [
								"{{url}}"
							],
							"path": [
								"api",
								"lakes",
								"update_service"
							]
						}
					},
					"response": []
				},
				{
					"name": "Delete service",
					"request": {
						"auth": {
							"type": "bearer",
							"bearer": [
								{
									"key": "token",
									"value": "{{token}}",
									"type": "string"
								}
							]
						},
						"method": "POST",
						"header": [
							{
								"key": "Content-Type",
								"name": "Content-Type",
								"type": "text",
								"value": "application/json"
							}
						],
						"body": {
							"mode": "formdata",
							"formdata": [
								{
									"key": "lake_service_id",
									"value": "1",
									"type": "text"
								}
							],
							"options": {
								"raw": {
									"language": "json"
								}
							}
						},
						"url": {
							"raw": "{{url}}/api/lakes/delete_service",
							"host": [
								"{{url}}"
							],
							"path": [
								"api",
								"lakes",
								"delete_service"
							]
						}
					},
					"response": []
				}
			],
			"protocolProfileBehavior": {}
		},
		{
			"name": "Services",
			"item": [
				{
					"name": "All",
					"request": {
						"auth": {
							"type": "bearer",
							"bearer": [
								{
									"key": "token",
									"value": "{{token}}",
									"type": "string"
								}
							]
						},
						"method": "GET",
						"header": [],
						"url": {
							"raw": "{{url}}/api/services/all",
							"host": [
								"{{url}}"
							],
							"path": [
								"api",
								"services",
								"all"
							]
						}
					},
					"response": []
				},
				{
					"name": "Create",
					"request": {
						"auth": {
							"type": "bearer",
							"bearer": [
								{
									"key": "token",
									"value": "{{token}}",
									"type": "string"
								}
							]
						},
						"method": "POST",
						"header": [
							{
								"key": "Content-Type",
								"name": "Content-Type",
								"value": "application/json",
								"type": "text"
							}
						],
						"body": {
							"mode": "raw",
							"raw": "{\n\t\"name\": \"test\",\n\t\"description\": \"test\"\n}",
							"options": {
								"raw": {
									"language": "json"
								}
							}
						},
						"url": {
							"raw": "{{url}}/api/services/create",
							"host": [
								"{{url}}"
							],
							"path": [
								"api",
								"services",
								"create"
							]
						}
					},
					"response": []
				},
				{
					"name": "Update",
					"request": {
						"auth": {
							"type": "bearer",
							"bearer": [
								{
									"key": "token",
									"value": "{{token}}",
									"type": "string"
								}
							]
						},
						"method": "POST",
						"header": [
							{
								"key": "Content-Type",
								"name": "Content-Type",
								"value": "application/json",
								"type": "text"
							}
						],
						"body": {
							"mode": "raw",
							"raw": "{\n\t\"id\": 5,\n\t\"name\": \"test2\",\n\t\"description\": \"test2\"\n}",
							"options": {
								"raw": {
									"language": "json"
								}
							}
						},
						"url": {
							"raw": "{{url}}/api/services/update",
							"host": [
								"{{url}}"
							],
							"path": [
								"api",
								"services",
								"update"
							]
						}
					},
					"response": []
				},
				{
					"name": "Delete",
					"request": {
						"auth": {
							"type": "bearer",
							"bearer": [
								{
									"key": "token",
									"value": "{{token}}",
									"type": "string"
								}
							]
						},
						"method": "POST",
						"header": [],
						"body": {
							"mode": "formdata",
							"formdata": [
								{
									"key": "id",
									"value": "5",
									"type": "text"
								}
							]
						},
						"url": {
							"raw": "{{url}}/api/services/delete",
							"host": [
								"{{url}}"
							],
							"path": [
								"api",
								"services",
								"delete"
							]
						}
					},
					"response": []
				}
			],
			"protocolProfileBehavior": {}
		},
		{
			"name": "Reservations",
			"item": [
				{
					"name": "All",
					"request": {
						"auth": {
							"type": "bearer",
							"bearer": [
								{
									"key": "token",
									"value": "{{token}}",
									"type": "string"
								}
							]
						},
						"method": "GET",
						"header": [],
						"url": {
							"raw": "{{url}}/api/reservations/all",
							"host": [
								"{{url}}"
							],
							"path": [
								"api",
								"reservations",
								"all"
							]
						}
					},
					"response": []
				},
				{
					"name": "Create",
					"request": {
						"auth": {
							"type": "bearer",
							"bearer": [
								{
									"key": "token",
									"value": "{{token}}",
									"type": "string"
								}
							]
						},
						"method": "POST",
						"header": [
							{
								"key": "Content-Type",
								"name": "Content-Type",
								"value": "application/json",
								"type": "text"
							}
						],
						"body": {
							"mode": "raw",
							"raw": "{\n\t\"lake_id\": \"1\",\n\t\"lake_services\": [1,2],\n\t\"date_from\": \"2019-12-01\",\n\t\"date_to\": \"2019-12-02\"\n}",
							"options": {
								"raw": {
									"language": "json"
								}
							}
						},
						"url": {
							"raw": "{{url}}/api/reservations/create",
							"host": [
								"{{url}}"
							],
							"path": [
								"api",
								"reservations",
								"create"
							]
						}
					},
					"response": []
				},
				{
					"name": "Update",
					"request": {
						"auth": {
							"type": "bearer",
							"bearer": [
								{
									"key": "token",
									"value": "{{token}}",
									"type": "string"
								}
							]
						},
						"method": "POST",
						"header": [
							{
								"key": "Content-Type",
								"name": "Content-Type",
								"value": "application/json",
								"type": "text"
							}
						],
						"body": {
							"mode": "raw",
							"raw": "{\n\t\"id\": 1,\n\t\"lake_services\": [1],\n\t\"date_from\": \"2019-12-01\",\n\t\"date_to\": \"2019-12-02\"\n}",
							"options": {
								"raw": {
									"language": "json"
								}
							}
						},
						"url": {
							"raw": "{{url}}/api/reservations/update",
							"host": [
								"{{url}}"
							],
							"path": [
								"api",
								"reservations",
								"update"
							]
						}
					},
					"response": []
				},
				{
					"name": "Delete",
					"request": {
						"auth": {
							"type": "bearer",
							"bearer": [
								{
									"key": "token",
									"value": "{{token}}",
									"type": "string"
								}
							]
						},
						"method": "POST",
						"header": [],
						"body": {
							"mode": "formdata",
							"formdata": [
								{
									"key": "id",
									"value": "1",
									"type": "text"
								}
							]
						},
						"url": {
							"raw": "{{url}}/api/reservations/delete",
							"host": [
								"{{url}}"
							],
							"path": [
								"api",
								"reservations",
								"delete"
							]
						}
					},
					"response": []
				}
			],
			"protocolProfileBehavior": {}
		},
		{
			"name": "Outcome invites",
			"item": [
				{
					"name": "All",
					"request": {
						"auth": {
							"type": "bearer",
							"bearer": [
								{
									"key": "token",
									"value": "{{token}}",
									"type": "string"
								}
							]
						},
						"method": "POST",
						"header": [],
						"body": {
							"mode": "formdata",
							"formdata": [
								{
									"key": "reservation_id",
									"value": "1",
									"type": "text"
								}
							]
						},
						"url": {
							"raw": "{{url}}/api/outcome_invites/all",
							"host": [
								"{{url}}"
							],
							"path": [
								"api",
								"outcome_invites",
								"all"
							]
						}
					},
					"response": []
				},
				{
					"name": "Create",
					"request": {
						"auth": {
							"type": "bearer",
							"bearer": [
								{
									"key": "token",
									"value": "{{token}}",
									"type": "string"
								}
							]
						},
						"method": "POST",
						"header": [
							{
								"key": "Content-Type",
								"name": "Content-Type",
								"value": "application/json",
								"type": "text"
							}
						],
						"body": {
							"mode": "formdata",
							"formdata": [
								{
									"key": "reservation_id",
									"value": "1",
									"type": "text"
								},
								{
									"key": "invited",
									"value": "2",
									"description": "user id of invited person",
									"type": "text"
								}
							],
							"options": {
								"raw": {
									"language": "json"
								}
							}
						},
						"url": {
							"raw": "{{url}}/api/outcome_invites/create",
							"host": [
								"{{url}}"
							],
							"path": [
								"api",
								"outcome_invites",
								"create"
							]
						}
					},
					"response": []
				},
				{
					"name": "Delete",
					"request": {
						"auth": {
							"type": "bearer",
							"bearer": [
								{
									"key": "token",
									"value": "{{token}}",
									"type": "string"
								}
							]
						},
						"method": "POST",
						"header": [],
						"body": {
							"mode": "formdata",
							"formdata": [
								{
									"key": "id",
									"value": "1",
									"description": "id of outcome invite",
									"type": "text"
								}
							]
						},
						"url": {
							"raw": "{{url}}/api/outcome_invites/delete",
							"host": [
								"{{url}}"
							],
							"path": [
								"api",
								"outcome_invites",
								"delete"
							]
						}
					},
					"response": []
				}
			],
			"protocolProfileBehavior": {}
		},
		{
			"name": "Income invites",
			"item": [
				{
					"name": "All",
					"request": {
						"auth": {
							"type": "bearer",
							"bearer": [
								{
									"key": "token",
									"value": "{{token}}",
									"type": "string"
								}
							]
						},
						"method": "GET",
						"header": [],
						"url": {
							"raw": "{{url}}/api/income_invites/all",
							"host": [
								"{{url}}"
							],
							"path": [
								"api",
								"income_invites",
								"all"
							]
						}
					},
					"response": []
				},
				{
					"name": "Answer",
					"request": {
						"auth": {
							"type": "bearer",
							"bearer": [
								{
									"key": "token",
									"value": "{{token}}",
									"type": "string"
								}
							]
						},
						"method": "POST",
						"header": [
							{
								"key": "Content-Type",
								"name": "Content-Type",
								"value": "application/json",
								"type": "text"
							}
						],
						"body": {
							"mode": "formdata",
							"formdata": [
								{
									"key": "id",
									"value": "2",
									"type": "text"
								},
								{
									"key": "status",
									"value": "accepted",
									"description": "awaiting, accepted or rejected",
									"type": "text"
								}
							],
							"options": {
								"raw": {
									"language": "json"
								}
							}
						},
						"url": {
							"raw": "{{url}}/api/income_invites/answer",
							"host": [
								"{{url}}"
							],
							"path": [
								"api",
								"income_invites",
								"answer"
							]
						}
					},
					"response": []
				}
			],
			"protocolProfileBehavior": {}
		}
	],
	"protocolProfileBehavior": {}
}